%!PS-Adobe-3.0 EPSF-3.0
%%Creator: cairo 1.17.4 (https://cairographics.org)
%%CreationDate: Fri Aug 19 15:17:15 2022
%%Pages: 1
%%DocumentData: Clean7Bit
%%LanguageLevel: 2
%%BoundingBox: 0 0 1002 117
%%EndComments
%%BeginProlog
50 dict begin
/q { gsave } bind def
/Q { grestore } bind def
/cm { 6 array astore concat } bind def
/w { setlinewidth } bind def
/J { setlinecap } bind def
/j { setlinejoin } bind def
/M { setmiterlimit } bind def
/d { setdash } bind def
/m { moveto } bind def
/l { lineto } bind def
/c { curveto } bind def
/h { closepath } bind def
/re { exch dup neg 3 1 roll 5 3 roll moveto 0 rlineto
      0 exch rlineto 0 rlineto closepath } bind def
/S { stroke } bind def
/f { fill } bind def
/f* { eofill } bind def
/n { newpath } bind def
/W { clip } bind def
/W* { eoclip } bind def
/BT { } bind def
/ET { } bind def
/BDC { mark 3 1 roll /BDC pdfmark } bind def
/EMC { mark /EMC pdfmark } bind def
/cairo_store_point { /cairo_point_y exch def /cairo_point_x exch def } def
/Tj { show currentpoint cairo_store_point } bind def
/TJ {
  {
    dup
    type /stringtype eq
    { show } { -0.001 mul 0 cairo_font_matrix dtransform rmoveto } ifelse
  } forall
  currentpoint cairo_store_point
} bind def
/cairo_selectfont { cairo_font_matrix aload pop pop pop 0 0 6 array astore
    cairo_font exch selectfont cairo_point_x cairo_point_y moveto } bind def
/Tf { pop /cairo_font exch def /cairo_font_matrix where
      { pop cairo_selectfont } if } bind def
/Td { matrix translate cairo_font_matrix matrix concatmatrix dup
      /cairo_font_matrix exch def dup 4 get exch 5 get cairo_store_point
      /cairo_font where { pop cairo_selectfont } if } bind def
/Tm { 2 copy 8 2 roll 6 array astore /cairo_font_matrix exch def
      cairo_store_point /cairo_font where { pop cairo_selectfont } if } bind def
/g { setgray } bind def
/rg { setrgbcolor } bind def
/d1 { setcachedevice } bind def
/cairo_data_source {
  CairoDataIndex CairoData length lt
    { CairoData CairoDataIndex get /CairoDataIndex CairoDataIndex 1 add def }
    { () } ifelse
} def
/cairo_flush_ascii85_file { cairo_ascii85_file status { cairo_ascii85_file flushfile } if } def
/cairo_image { image cairo_flush_ascii85_file } def
/cairo_imagemask { imagemask cairo_flush_ascii85_file } def
%%EndProlog
%%BeginSetup
%%EndSetup
%%Page: 1 1
%%BeginPageSetup
%%PageBoundingBox: 0 0 1002 117
%%EndPageSetup
q 0 0 1002 117 rectclip
1 0 0 -1 0 117 cm q
0.0509804 0.670588 0.631373 rg
623.742 57.684 m 602.145 57.684 l 612.867 38.934 l h
623.742 57.684 m f
601.77 60.609 m 623.441 60.609 l 612.719 79.434 l h
601.77 60.609 m f
610.316 37.512 m 599.367 56.559 l 588.344 37.512 l h
610.316 37.512 m f
585.719 38.934 m 596.594 57.684 l 574.844 57.684 l h
585.719 38.934 m f
575.145 60.609 m 597.043 60.609 l 586.094 79.586 l h
575.145 60.609 m f
572.441 61.887 m 583.395 80.859 l 561.418 80.859 l h
572.441 61.887 m f
588.867 80.859 m 599.367 62.41 l 610.094 80.859 l h
588.867 80.859 m f
615.27 80.859 m 626.219 61.887 l 637.242 80.859 l h
615.27 80.859 m f
588.27 34.586 m 599.293 15.461 l 610.316 34.586 l h
588.27 34.586 m f
0 g
659.969 71.484 m 653.219 71.484 l 653.219 77.184 l 661.168 77.184 l 661.168
 80.785 l 648.867 80.785 l 648.867 59.336 l 661.168 59.336 l 661.168 62.934
 l 653.219 62.934 l 653.219 68.035 l 659.969 68.035 l h
659.969 71.484 m f
671.367 68.859 m 670.02 68.711 l 668.895 68.711 668.145 69.234 667.691 
70.211 c 667.691 80.711 l 663.492 80.711 l 663.492 64.734 l 667.395 64.734
 l 667.543 66.461 l 668.219 65.109 669.117 64.434 670.242 64.434 c 670.691
 64.434 671.066 64.512 671.367 64.66 c h
671.367 68.859 m f
677.293 64.809 m 677.441 66.387 l 678.418 65.109 679.617 64.512 681.117
 64.512 c 683.895 64.512 685.242 66.461 685.316 70.285 c 685.316 80.785 
l 681.117 80.785 l 681.117 70.586 l 681.117 69.684 680.969 69.012 680.742
 68.637 c 680.441 68.262 679.992 68.035 679.316 68.035 c 678.566 68.035 
677.969 68.41 677.52 69.234 c 677.52 80.785 l 673.316 80.785 l 673.316 64.809
 l h
677.293 64.809 m f
695.441 76.512 m 695.441 76.137 695.293 75.836 694.918 75.535 c 694.543
 75.234 693.793 74.859 692.668 74.336 c 690.941 73.66 689.742 72.91 689.145
 72.16 c 688.469 71.41 688.168 70.512 688.168 69.387 c 688.168 67.961 688.691
 66.836 689.668 65.934 c 690.645 65.035 691.992 64.586 693.645 64.586 c 
695.367 64.586 696.793 65.035 697.844 65.934 c 698.895 66.836 699.418 68.035
 699.418 69.609 c 695.219 69.609 l 695.219 68.336 694.691 67.66 693.566 
67.66 c 693.117 67.66 692.742 67.809 692.441 68.035 c 692.145 68.336 691.992
 68.711 691.992 69.16 c 691.992 69.535 692.145 69.836 692.441 70.059 c 692.742
 70.285 693.492 70.734 694.691 71.184 c 696.418 71.785 697.617 72.535 698.293
 73.285 c 698.969 74.035 699.344 75.086 699.344 76.285 c 699.344 77.711 
698.816 78.836 697.77 79.734 c 696.719 80.637 695.293 81.012 693.566 81.012
 c 692.367 81.012 691.395 80.785 690.492 80.336 c 689.594 79.887 688.918
 79.211 688.395 78.461 c 687.867 77.637 687.645 76.734 687.645 75.836 c 
691.617 75.836 l 691.617 76.586 691.844 77.109 692.145 77.484 c 692.441 
77.859 692.969 78.012 693.719 78.012 c 694.844 78.012 695.441 77.484 695.441
 76.512 c h
695.441 76.512 m f
706.918 60.91 m 706.918 64.809 l 709.02 64.809 l 709.02 67.961 l 706.918
 67.961 l 706.918 75.91 l 706.918 76.512 706.992 76.961 707.145 77.184 c
 707.293 77.41 707.668 77.559 708.117 77.559 c 708.492 77.559 708.867 77.559
 709.094 77.484 c 709.094 80.711 l 708.418 81.012 707.594 81.086 706.77 
81.086 c 704.066 81.086 702.719 79.512 702.719 76.434 c 702.719 67.961 l
 700.918 67.961 l 700.918 64.809 l 702.793 64.809 l 702.793 60.91 l h
706.918 60.91 m f
711.645 69.836 7.199 3.449 re f
732.719 76.359 m 726.793 76.359 l 725.668 80.785 l 721.094 80.785 l 727.77
 59.336 l 731.742 59.336 l 738.492 80.785 l 733.918 80.785 l h
727.77 72.762 m 731.742 72.762 l 729.719 65.109 l h
727.77 72.762 m f
752.742 73.285 m 752.742 75.836 752.293 77.785 751.469 79.137 c 750.645
 80.41 749.367 81.086 747.566 81.086 c 746.219 81.086 745.094 80.484 744.27
 79.211 c 744.117 80.785 l 740.293 80.785 l 740.293 58.137 l 744.492 58.137
 l 744.492 66.16 l 745.242 65.109 746.293 64.586 747.566 64.586 c 749.367
 64.586 750.645 65.262 751.469 66.535 c 752.293 67.809 752.742 69.684 752.742
 72.16 c h
748.617 72.234 m 748.617 70.586 748.469 69.461 748.168 68.859 c 747.867
 68.262 747.27 68.035 746.441 68.035 c 745.543 68.035 744.941 68.41 744.492
 69.234 c 744.492 76.512 l 744.867 77.262 745.543 77.637 746.441 77.637 
c 747.27 77.637 747.793 77.41 748.094 76.887 c 748.395 76.359 748.543 75.387
 748.617 73.887 c h
748.617 72.234 m f
767.742 73.285 m 767.742 75.836 767.293 77.785 766.469 79.137 c 765.645
 80.41 764.367 81.086 762.566 81.086 c 761.219 81.086 760.094 80.484 759.27
 79.211 c 759.117 80.785 l 755.293 80.785 l 755.293 58.137 l 759.492 58.137
 l 759.492 66.16 l 760.242 65.109 761.293 64.586 762.566 64.586 c 764.367
 64.586 765.645 65.262 766.469 66.535 c 767.293 67.809 767.742 69.684 767.742
 72.16 c h
763.543 72.234 m 763.543 70.586 763.395 69.461 763.094 68.859 c 762.793
 68.262 762.191 68.035 761.367 68.035 c 760.469 68.035 759.867 68.41 759.418
 69.234 c 759.418 76.512 l 759.793 77.262 760.469 77.637 761.367 77.637 
c 762.191 77.637 762.719 77.41 763.02 76.887 c 763.316 76.359 763.469 75.387
 763.543 73.887 c h
763.543 72.234 m f
776.668 81.086 m 774.492 81.086 772.844 80.41 771.645 79.137 c 770.441 
77.859 769.844 76.059 769.844 73.66 c 769.844 72.387 l 769.844 69.836 770.367
 67.961 771.492 66.535 c 772.617 65.184 774.191 64.512 776.219 64.512 c 
778.242 64.512 779.742 65.184 780.719 66.461 c 781.691 67.734 782.219 69.609
 782.293 72.16 c 782.293 74.184 l 773.969 74.184 l 774.043 75.387 774.27
 76.211 774.719 76.809 c 775.168 77.336 775.918 77.637 776.816 77.637 c 
778.242 77.637 779.367 77.184 780.344 76.211 c 781.992 78.762 l 781.469 
79.434 780.719 80.035 779.742 80.484 c 778.77 80.934 777.793 81.086 776.668
 81.086 c h
774.043 71.262 m 778.242 71.262 l 778.242 70.887 l 778.242 69.91 778.094
 69.234 777.793 68.711 c 777.492 68.184 776.969 67.961 776.293 67.961 c 
775.543 67.961 775.02 68.184 774.719 68.711 c 774.27 69.309 774.117 70.137
 774.043 71.262 c h
774.043 71.262 m f
786.191 69.836 7.203 3.449 re f
812.668 80.785 m 808.316 80.785 l 808.316 71.637 l 801.941 71.637 l 801.941
 80.785 l 797.668 80.785 l 797.668 59.336 l 802.02 59.336 l 802.02 68.035
 l 808.395 68.035 l 808.395 59.336 l 812.742 59.336 l 812.742 80.785 l h
812.668 80.785 m f
815.441 72.234 m 815.441 69.836 816.043 67.887 817.168 66.535 c 818.293
 65.184 819.867 64.434 821.895 64.434 c 823.918 64.434 825.492 65.109 826.617
 66.535 c 827.742 67.961 828.344 69.836 828.344 72.234 c 828.344 73.285 
l 828.344 75.684 827.742 77.637 826.617 78.984 c 825.492 80.336 823.918 
81.012 821.895 81.012 c 819.867 81.012 818.293 80.336 817.094 78.984 c 815.969
 77.637 815.367 75.684 815.367 73.285 c 815.367 72.234 l h
819.645 73.285 m 819.645 76.137 820.395 77.559 821.895 77.559 c 823.316
 77.559 824.066 76.359 824.145 73.961 c 824.145 72.234 l 824.145 70.809 
823.918 69.684 823.543 69.012 c 823.168 68.336 822.566 67.961 821.816 67.961
 c 821.145 67.961 820.543 68.336 820.168 69.012 c 819.793 69.684 819.566
 70.809 819.566 72.234 c 819.566 73.285 l h
819.645 73.285 m f
836.742 77.559 m 837.941 77.559 838.543 76.809 838.617 75.234 c 842.52 
75.234 l 842.52 76.961 841.992 78.387 840.941 79.434 c 839.895 80.484 838.543
 81.012 836.895 81.012 c 834.867 81.012 833.293 80.336 832.168 79.059 c 
831.117 77.785 830.52 75.91 830.52 73.434 c 830.52 72.234 l 830.52 69.762
 831.043 67.809 832.094 66.535 c 833.145 65.184 834.719 64.586 836.816 64.586
 c 838.543 64.586 839.969 65.109 840.941 66.234 c 841.918 67.359 842.441
 68.859 842.52 70.887 c 838.617 70.887 l 838.617 69.984 838.469 69.309 838.168
 68.785 c 837.867 68.336 837.418 68.035 836.742 68.035 c 835.992 68.035 
835.469 68.262 835.168 68.785 c 834.867 69.309 834.719 70.285 834.645 71.785
 c 834.645 73.434 l 834.645 74.711 834.719 75.609 834.867 76.137 c 835.02
 76.66 835.242 77.035 835.469 77.262 c 835.77 77.484 836.219 77.559 836.742
 77.559 c h
836.742 77.559 m f
848.895 66.234 m 849.793 65.109 850.918 64.512 852.191 64.512 c 853.617
 64.512 854.742 65.035 855.492 66.012 c 856.242 67.059 856.617 68.559 856.617
 70.586 c 856.617 80.711 l 852.418 80.711 l 852.418 70.586 l 852.418 69.684
 852.27 69.012 851.969 68.559 c 851.668 68.109 851.219 67.961 850.543 67.961
 c 849.793 67.961 849.191 68.336 848.742 69.012 c 848.742 80.711 l 844.543
 80.711 l 844.543 58.059 l 848.742 58.059 l 848.742 66.234 l h
848.895 66.234 m f
866.742 76.512 m 866.742 76.137 866.594 75.836 866.219 75.535 c 865.844
 75.234 865.094 74.859 863.969 74.336 c 862.242 73.66 861.043 72.91 860.441
 72.16 c 859.77 71.41 859.469 70.512 859.469 69.387 c 859.469 67.961 859.992
 66.836 860.969 65.934 c 861.941 65.035 863.293 64.586 864.941 64.586 c 
866.668 64.586 868.094 65.035 869.145 65.934 c 870.191 66.836 870.719 68.035
 870.719 69.609 c 866.52 69.609 l 866.52 68.336 865.992 67.66 864.867 67.66
 c 864.418 67.66 864.043 67.809 863.742 68.035 c 863.441 68.336 863.293 
68.711 863.293 69.16 c 863.293 69.535 863.441 69.836 863.742 70.059 c 864.043
 70.359 864.793 70.734 865.992 71.184 c 867.719 71.785 868.918 72.535 869.594
 73.285 c 870.27 74.035 870.645 75.086 870.645 76.285 c 870.645 77.711 870.117
 78.836 869.066 79.734 c 868.02 80.637 866.594 81.012 864.867 81.012 c 863.668
 81.012 862.691 80.785 861.793 80.336 c 860.895 79.887 860.219 79.211 859.691
 78.461 c 859.168 77.637 858.941 76.734 858.941 75.836 c 862.918 75.836 
l 862.918 76.586 863.145 77.109 863.441 77.484 c 863.742 77.859 864.27 78.012
 865.02 78.012 c 866.219 78.012 866.742 77.484 866.742 76.512 c h
866.742 76.512 m f
879.191 77.559 m 880.395 77.559 880.992 76.809 881.066 75.234 c 884.969
 75.234 l 884.969 76.961 884.441 78.387 883.395 79.434 c 882.344 80.484 
880.992 81.012 879.344 81.012 c 877.316 81.012 875.742 80.336 874.617 79.059
 c 873.566 77.785 872.969 75.91 872.969 73.434 c 872.969 72.234 l 872.969
 69.762 873.492 67.809 874.543 66.535 c 875.594 65.184 877.168 64.586 879.27
 64.586 c 880.992 64.586 882.418 65.109 883.395 66.234 c 884.367 67.359 
884.895 68.859 884.969 70.887 c 881.066 70.887 l 881.066 69.984 880.918 
69.309 880.617 68.785 c 880.316 68.336 879.867 68.035 879.191 68.035 c 878.441
 68.035 877.918 68.262 877.617 68.785 c 877.316 69.309 877.168 70.285 877.094
 71.785 c 877.094 73.434 l 877.094 74.711 877.168 75.609 877.316 76.137 
c 877.469 76.66 877.691 77.035 877.918 77.262 c 878.219 77.484 878.668 77.559
 879.191 77.559 c h
879.191 77.559 m f
891.344 66.234 m 892.242 65.109 893.367 64.512 894.645 64.512 c 896.066
 64.512 897.191 65.035 897.941 66.012 c 898.691 67.059 899.066 68.559 899.066
 70.586 c 899.066 80.711 l 894.867 80.711 l 894.867 70.586 l 894.867 69.684
 894.719 69.012 894.418 68.559 c 894.117 68.109 893.668 67.961 892.992 67.961
 c 892.242 67.961 891.645 68.336 891.191 69.012 c 891.191 80.711 l 886.992
 80.711 l 886.992 58.059 l 891.191 58.059 l 891.191 66.234 l h
891.344 66.234 m f
910.02 79.285 m 909.117 80.484 907.992 81.012 906.566 81.012 c 905.066 
81.012 904.02 80.484 903.27 79.512 c 902.52 78.535 902.145 77.035 902.145
 75.086 c 902.145 64.734 l 906.344 64.734 l 906.344 75.234 l 906.344 76.809
 906.867 77.559 907.918 77.559 c 908.895 77.559 909.566 77.109 910.02 76.285
 c 910.02 64.734 l 914.219 64.734 l 914.219 80.711 l 910.316 80.711 l h
910.02 79.285 m f
917.219 58.137 4.199 22.648 re f
931.02 81.086 m 928.844 81.086 927.191 80.41 925.992 79.137 c 924.793 77.859
 924.191 76.059 924.191 73.66 c 924.191 72.387 l 924.191 69.836 924.719 
67.961 925.844 66.535 c 926.969 65.184 928.543 64.512 930.566 64.512 c 932.594
 64.512 934.094 65.184 935.066 66.461 c 936.043 67.734 936.566 69.609 936.645
 72.16 c 936.645 74.184 l 928.316 74.184 l 928.395 75.387 928.617 76.211
 929.066 76.809 c 929.52 77.336 930.27 77.637 931.168 77.637 c 932.594 77.637
 933.719 77.184 934.691 76.211 c 936.344 78.762 l 935.816 79.434 935.066
 80.035 934.094 80.484 c 933.117 80.934 932.219 81.086 931.02 81.086 c h
928.395 71.262 m 932.594 71.262 l 932.594 70.887 l 932.594 69.91 932.441
 69.234 932.145 68.711 c 931.844 68.184 931.316 67.961 930.645 67.961 c 
929.969 67.961 929.367 68.184 929.066 68.711 c 928.691 69.309 928.469 70.137
 928.395 71.262 c h
928.395 71.262 m f
953.293 59.336 m 957.645 59.336 l 957.645 74.184 l 957.645 76.285 957.043
 77.934 955.918 79.211 c 954.793 80.484 953.293 81.086 951.418 81.086 c 
949.469 81.086 947.895 80.484 946.844 79.359 c 945.719 78.16 945.191 76.586
 945.191 74.484 c 949.543 74.484 l 949.543 76.512 950.145 77.484 951.418
 77.484 c 952.691 77.484 953.293 76.285 953.293 73.961 c h
953.293 59.336 m f
967.242 81.086 m 965.066 81.086 963.418 80.41 962.219 79.137 c 961.02 77.859
 960.418 76.059 960.418 73.66 c 960.418 72.387 l 960.418 69.836 960.941 
67.961 962.066 66.535 c 963.191 65.184 964.77 64.512 966.793 64.512 c 968.816
 64.512 970.316 65.184 971.293 66.461 c 972.27 67.734 972.793 69.609 972.867
 72.16 c 972.867 74.184 l 964.543 74.184 l 964.617 75.387 964.844 76.211
 965.293 76.809 c 965.742 77.336 966.492 77.637 967.395 77.637 c 968.816
 77.637 969.941 77.184 970.918 76.211 c 972.566 78.762 l 972.043 79.434 
971.293 80.035 970.316 80.484 c 969.344 80.934 968.367 81.086 967.242 81.086
 c h
964.617 71.262 m 968.816 71.262 l 968.816 70.887 l 968.816 69.91 968.668
 69.234 968.367 68.711 c 968.066 68.184 967.543 67.961 966.867 67.961 c 
966.117 67.961 965.594 68.184 965.293 68.711 c 964.844 69.309 964.691 70.137
 964.617 71.262 c h
964.617 71.262 m f
979.094 64.809 m 979.242 66.387 l 980.219 65.109 981.418 64.512 982.918
 64.512 c 985.691 64.512 987.043 66.461 987.117 70.285 c 987.117 80.785 
l 982.918 80.785 l 982.918 70.586 l 982.918 69.684 982.77 69.012 982.543
 68.637 c 982.242 68.262 981.793 68.035 981.117 68.035 c 980.367 68.035 
979.77 68.41 979.316 69.234 c 979.316 80.785 l 975.117 80.785 l 975.117 
64.809 l h
979.094 64.809 m f
997.691 80.785 m 997.543 80.559 997.469 80.109 997.316 79.512 c 996.566
 80.559 995.594 81.012 994.316 81.012 c 992.969 81.012 991.844 80.559 991.02
 79.66 c 990.117 78.762 989.668 77.637 989.668 76.211 c 989.668 74.559 990.191
 73.285 991.242 72.309 c 992.293 71.41 993.867 70.961 995.816 70.887 c 997.094
 70.887 l 997.094 69.609 l 997.094 68.859 996.941 68.41 996.719 68.109 c
 996.492 67.809 996.117 67.66 995.668 67.66 c 994.617 67.66 994.094 68.262
 994.094 69.461 c 989.895 69.461 l 989.895 67.961 990.418 66.762 991.543
 65.785 c 992.668 64.809 994.02 64.359 995.742 64.359 c 997.469 64.359 998.816
 64.809 999.793 65.711 c 1000.77 66.609 1001.219 67.887 1001.219 69.609 
c 1001.219 77.109 l 1001.219 78.461 1001.441 79.586 1001.816 80.336 c 1001.816
 80.559 l 997.691 80.559 l h
995.219 77.785 m 995.668 77.785 996.043 77.711 996.418 77.484 c 996.719
 77.336 997.02 77.109 997.168 76.809 c 997.168 73.512 l 996.191 73.512 l
 995.52 73.512 994.918 73.734 994.543 74.184 c 994.168 74.637 993.941 75.234
 993.941 75.984 c 993.867 77.184 994.316 77.785 995.219 77.785 c h
995.219 77.785 m f
561.191 91.586 m 561.191 105.387 l 561.191 107.262 560.668 108.762 559.691
 109.734 c 558.719 110.785 557.293 111.309 555.418 111.309 c 553.543 111.309
 552.117 110.785 551.145 109.809 c 550.168 108.836 549.645 107.336 549.645
 105.387 c 549.645 91.586 l 551.145 91.586 l 551.145 105.309 l 551.145 108.387
 552.566 109.961 555.418 109.961 c 558.191 109.961 559.617 108.461 559.691
 105.461 c 559.691 91.586 l h
561.191 91.586 m f
566.594 96.609 m 566.668 98.934 l 567.117 98.184 567.645 97.512 568.316
 97.059 c 568.992 96.609 569.742 96.387 570.566 96.387 c 573.117 96.387 
574.395 98.035 574.469 101.41 c 574.469 111.086 l 572.969 111.086 l 572.969
 101.484 l 572.969 100.211 572.742 99.234 572.293 98.637 c 571.844 98.035
 571.168 97.734 570.191 97.734 c 569.441 97.734 568.691 98.035 568.094 98.637
 c 567.492 99.234 566.969 99.984 566.668 101.035 c 566.668 111.086 l 565.168
 111.086 l 565.168 96.609 l h
566.594 96.609 m f
578.293 92.41 m 578.293 92.109 578.367 91.887 578.52 91.66 c 578.668 91.434
 578.895 91.359 579.27 91.359 c 579.566 91.359 579.793 91.434 580.02 91.66
 c 580.242 91.887 580.242 92.109 580.242 92.41 c 580.242 92.711 580.168 
92.934 580.02 93.16 c 579.867 93.387 579.566 93.461 579.27 93.461 c 578.969
 93.461 578.742 93.387 578.52 93.16 c 578.367 92.934 578.293 92.711 578.293
 92.41 c h
580.02 111.086 m 578.52 111.086 l 578.52 96.609 l 580.02 96.609 l h
580.02 111.086 m f
587.969 108.684 m 591.492 96.535 l 592.992 96.535 l 588.492 111.012 l 587.293
 111.012 l 582.793 96.535 l 584.293 96.535 l h
587.969 108.684 m f
600.344 111.309 m 598.617 111.309 597.344 110.785 596.367 109.66 c 595.395
 108.535 594.941 106.961 594.867 104.934 c 594.867 103.137 l 594.867 101.035
 595.316 99.309 596.293 98.109 c 597.191 96.91 598.469 96.309 600.117 96.309
 c 601.691 96.309 602.895 96.836 603.719 97.887 c 604.543 98.934 604.992
 100.512 604.992 102.609 c 604.992 104.035 l 596.367 104.035 l 596.367 104.859
 l 596.367 106.512 596.742 107.785 597.418 108.684 c 598.094 109.586 599.145
 110.035 600.418 110.035 c 601.844 110.035 602.969 109.512 603.867 108.461
 c 604.617 109.434 l 603.719 110.637 602.219 111.309 600.344 111.309 c h
600.043 97.66 m 598.844 97.66 597.941 98.109 597.344 98.934 c 596.742 99.762
 596.367 100.961 596.293 102.535 c 603.418 102.535 l 603.418 102.16 l 603.344
 99.16 602.219 97.66 600.043 97.66 c h
600.043 97.66 m f
613.77 97.961 m 613.395 97.887 613.094 97.887 612.867 97.887 c 612.043 
97.887 611.367 98.184 610.77 98.711 c 610.242 99.309 609.793 100.059 609.566
 101.035 c 609.566 111.012 l 608.066 111.012 l 608.066 96.535 l 609.492 
96.535 l 609.492 98.711 l 610.168 97.059 611.293 96.309 612.793 96.309 c
 613.168 96.309 613.469 96.387 613.691 96.461 c h
613.77 97.961 m f
623.594 107.484 m 623.594 106.887 623.367 106.285 622.844 105.836 c 622.316
 105.387 621.418 104.859 620.219 104.336 c 619.02 103.809 618.117 103.285
 617.594 102.91 c 617.066 102.535 616.77 102.16 616.543 101.711 c 616.316
 101.262 616.168 100.734 616.168 100.137 c 616.168 99.012 616.543 98.109
 617.367 97.359 c 618.191 96.609 619.242 96.234 620.52 96.234 c 621.867 
96.234 622.992 96.609 623.816 97.434 c 624.645 98.184 625.02 99.234 625.02
 100.512 c 623.52 100.512 l 623.52 99.684 623.219 99.012 622.691 98.484 
c 622.168 97.961 621.418 97.66 620.52 97.66 c 619.617 97.66 618.941 97.887
 618.418 98.336 c 617.895 98.785 617.668 99.387 617.668 100.059 c 617.668
 100.66 617.895 101.109 618.27 101.484 c 618.645 101.859 619.543 102.309
 620.816 102.984 c 622.168 103.586 623.066 104.035 623.594 104.41 c 624.117
 104.785 624.492 105.234 624.719 105.684 c 624.941 106.137 625.094 106.734
 625.094 107.336 c 625.094 108.535 624.645 109.512 623.816 110.184 c 622.992
 110.859 621.867 111.234 620.52 111.234 c 619.094 111.234 617.895 110.859
 617.066 110.035 c 616.168 109.285 615.719 108.234 615.719 107.035 c 617.219
 107.035 l 617.293 107.934 617.594 108.609 618.117 109.137 c 618.645 109.66
 619.469 109.887 620.52 109.887 c 621.418 109.887 622.168 109.66 622.691
 109.211 c 623.293 108.836 623.594 108.234 623.594 107.484 c h
623.594 107.484 m f
628.543 92.41 m 628.543 92.109 628.617 91.887 628.77 91.66 c 628.918 91.434
 629.145 91.359 629.52 91.359 c 629.816 91.359 630.043 91.434 630.27 91.66
 c 630.492 91.887 630.492 92.109 630.492 92.41 c 630.492 92.711 630.418 
92.934 630.27 93.16 c 630.117 93.387 629.816 93.461 629.52 93.461 c 629.219
 93.461 628.992 93.387 628.77 93.16 c 628.617 92.934 628.543 92.711 628.543
 92.41 c h
630.27 111.086 m 628.77 111.086 l 628.77 96.609 l 630.27 96.609 l h
630.27 111.086 m f
636.566 92.859 m 636.566 96.535 l 639.043 96.535 l 639.043 97.887 l 636.566
 97.887 l 636.566 107.484 l 636.566 108.309 636.719 108.836 636.941 109.285
 c 637.168 109.66 637.543 109.887 638.145 109.887 c 638.367 109.887 638.742
 109.809 639.191 109.734 c 639.27 111.086 l 638.895 111.234 638.441 111.309
 637.844 111.309 c 636.117 111.309 635.219 110.109 635.145 107.711 c 635.145
 97.887 l 632.895 97.887 l 632.895 96.535 l 635.145 96.535 l 635.145 92.859
 l h
636.566 92.859 m f
646.168 108.609 m 649.617 96.609 l 651.191 96.609 l 646.094 113.41 l 645.793
 114.234 l 645.117 116.035 644.066 116.934 642.645 116.934 c 642.27 116.934
 641.969 116.859 641.594 116.785 c 641.594 115.434 l 641.816 115.512 642.043
 115.512 642.27 115.512 c 642.941 115.512 643.469 115.285 643.844 114.91
 c 644.219 114.535 644.594 113.934 644.895 113.035 c 645.492 111.012 l 640.918
 96.609 l 642.566 96.609 l h
646.168 108.609 m f
659.367 103.059 m 659.367 100.961 659.816 99.309 660.793 98.109 c 661.77
 96.91 663.043 96.309 664.691 96.309 c 666.344 96.309 667.617 96.91 668.594
 98.109 c 669.566 99.309 670.02 100.961 670.02 103.059 c 670.02 104.637 
l 670.02 106.734 669.566 108.387 668.594 109.586 c 667.617 110.785 666.344
 111.387 664.77 111.387 c 663.191 111.387 661.844 110.785 660.941 109.66
 c 659.969 108.535 659.52 106.887 659.441 104.859 c 659.441 103.059 l h
660.867 104.559 m 660.867 106.211 661.168 107.559 661.844 108.461 c 662.52
 109.434 663.418 109.887 664.617 109.887 c 665.816 109.887 666.793 109.434
 667.395 108.535 c 668.066 107.637 668.367 106.285 668.367 104.559 c 668.367
 103.059 l 668.367 101.41 667.992 100.059 667.316 99.16 c 666.645 98.184
 665.742 97.734 664.543 97.734 c 663.418 97.734 662.441 98.184 661.77 99.16
 c 661.094 100.059 660.719 101.41 660.719 102.984 c 660.719 104.559 l h
660.867 104.559 m f
674.367 111.086 m 674.367 97.961 l 672.344 97.961 l 672.344 96.609 l 674.367
 96.609 l 674.367 94.734 l 674.367 93.309 674.742 92.184 675.344 91.434 
c 675.941 90.684 676.918 90.309 678.043 90.309 c 678.566 90.309 679.02 90.387
 679.469 90.535 c 679.395 91.887 l 679.02 91.809 678.566 91.734 678.191 
91.734 c 677.441 91.734 676.918 92.035 676.469 92.559 c 676.02 93.086 675.867
 93.91 675.867 94.887 c 675.867 96.684 l 678.719 96.684 l 678.719 98.035
 l 675.867 98.035 l 675.867 111.16 l 674.367 111.16 l h
674.367 111.086 m f
696.941 105.609 m 689.668 105.609 l 688.02 111.086 l 686.441 111.086 l 
692.668 91.586 l 694.094 91.586 l 700.316 111.086 l 698.742 111.086 l h
690.043 104.184 m 696.492 104.184 l 693.27 93.762 l h
690.043 104.184 m f
712.617 104.484 m 712.617 106.734 712.242 108.387 711.418 109.586 c 710.594
 110.785 709.469 111.309 707.969 111.309 c 706.316 111.309 705.043 110.637
 704.219 109.285 c 704.219 116.559 l 702.719 116.559 l 702.719 96.535 l 
704.066 96.535 l 704.145 98.484 l 704.969 96.984 706.242 96.234 707.895 
96.234 c 709.469 96.234 710.594 96.762 711.418 97.887 c 712.168 99.012 712.617
 100.66 712.617 102.984 c h
711.191 103.137 m 711.191 101.262 710.895 99.91 710.293 99.012 c 709.691
 98.109 708.793 97.734 707.594 97.734 c 706.02 97.734 704.895 98.559 704.219
 100.137 c 704.219 107.785 l 704.895 109.211 706.02 109.961 707.594 109.961
 c 708.793 109.961 709.691 109.512 710.219 108.684 c 710.816 107.785 711.117
 106.434 711.117 104.637 c 711.117 103.137 l h
711.191 103.137 m f
725.969 104.484 m 725.969 106.734 725.594 108.387 724.77 109.586 c 723.941
 110.785 722.816 111.309 721.316 111.309 c 719.668 111.309 718.395 110.637
 717.566 109.285 c 717.566 116.559 l 716.066 116.559 l 716.066 96.535 l 
717.418 96.535 l 717.492 98.484 l 718.316 96.984 719.594 96.234 721.242 
96.234 c 722.816 96.234 723.941 96.762 724.77 97.887 c 725.52 99.012 725.969
 100.66 725.969 102.984 c h
724.469 103.137 m 724.469 101.262 724.168 99.91 723.566 99.012 c 722.969
 98.109 722.066 97.734 720.867 97.734 c 719.293 97.734 718.168 98.559 717.492
 100.137 c 717.492 107.785 l 718.168 109.211 719.293 109.961 720.867 109.961
 c 722.066 109.961 722.969 109.512 723.492 108.684 c 724.094 107.785 724.395
 106.434 724.395 104.637 c 724.395 103.137 l h
724.469 103.137 m f
729.566 90.535 1.5 20.551 re f
735.117 92.41 m 735.117 92.109 735.191 91.887 735.344 91.66 c 735.492 91.434
 735.719 91.359 736.094 91.359 c 736.395 91.359 736.617 91.434 736.844 91.66
 c 737.066 91.887 737.066 92.109 737.066 92.41 c 737.066 92.711 736.992 
92.934 736.844 93.16 c 736.691 93.387 736.395 93.461 736.094 93.461 c 735.793
 93.461 735.566 93.387 735.344 93.16 c 735.191 92.934 735.117 92.711 735.117
 92.41 c h
736.844 111.086 m 735.344 111.086 l 735.344 96.609 l 736.844 96.609 l h
736.844 111.086 m f
745.77 111.309 m 744.043 111.309 742.77 110.785 741.793 109.66 c 740.816
 108.535 740.367 106.961 740.293 104.934 c 740.293 103.137 l 740.293 101.035
 740.742 99.309 741.719 98.109 c 742.617 96.91 743.895 96.309 745.543 96.309
 c 747.117 96.309 748.316 96.836 749.145 97.887 c 749.969 98.934 750.418
 100.512 750.418 102.609 c 750.418 104.035 l 741.793 104.035 l 741.793 104.859
 l 741.793 106.512 742.168 107.785 742.844 108.684 c 743.52 109.586 744.566
 110.035 745.844 110.035 c 747.27 110.035 748.395 109.512 749.293 108.461
 c 750.043 109.434 l 749.066 110.637 747.645 111.309 745.77 111.309 c h
745.469 97.66 m 744.27 97.66 743.367 98.109 742.77 98.934 c 742.168 99.762
 741.793 100.961 741.719 102.535 c 748.844 102.535 l 748.844 102.16 l 748.77
 99.16 747.645 97.66 745.469 97.66 c h
745.469 97.66 m f
752.969 103.137 m 752.969 100.887 753.344 99.16 754.168 98.035 c 754.992
 96.91 756.117 96.309 757.691 96.309 c 759.344 96.309 760.543 97.059 761.367
 98.484 c 761.367 90.461 l 762.867 90.461 l 762.867 111.012 l 761.441 111.012
 l 761.367 109.137 l 760.543 110.559 759.344 111.234 757.617 111.234 c 756.117
 111.234 754.918 110.637 754.168 109.512 c 753.418 108.387 752.969 106.734
 752.969 104.559 c h
754.469 104.484 m 754.469 106.359 754.77 107.711 755.293 108.609 c 755.816
 109.512 756.719 109.887 757.918 109.887 c 759.492 109.887 760.617 109.137
 761.293 107.637 c 761.293 100.137 l 760.617 98.484 759.492 97.734 757.918
 97.734 c 756.719 97.734 755.816 98.184 755.293 99.012 c 754.77 99.836 754.469
 101.184 754.469 103.059 c h
754.469 104.484 m f
782.52 106.285 m 782.52 105.16 782.219 104.336 781.617 103.734 c 781.02
 103.137 779.816 102.535 778.168 101.934 c 776.441 101.336 775.242 100.734
 774.418 99.984 c 773.367 99.086 772.844 97.887 772.844 96.309 c 772.844
 94.809 773.367 93.609 774.418 92.637 c 775.469 91.734 776.742 91.211 778.395
 91.211 c 780.043 91.211 781.395 91.734 782.441 92.859 c 783.492 93.984 
784.02 95.336 784.02 97.059 c 782.441 97.059 l 782.441 95.785 782.066 94.66
 781.316 93.91 c 780.566 93.086 779.594 92.711 778.316 92.711 c 777.117 
92.711 776.145 93.012 775.395 93.684 c 774.645 94.359 774.344 95.184 774.344
 96.234 c 774.344 97.211 774.645 98.035 775.316 98.637 c 775.992 99.234 
777.043 99.836 778.543 100.285 c 779.969 100.734 781.094 101.262 781.844
 101.785 c 782.594 102.309 783.117 102.91 783.492 103.66 c 783.867 104.336
 784.02 105.16 784.02 106.137 c 784.02 107.637 783.492 108.91 782.441 109.809
 c 781.395 110.711 780.043 111.234 778.395 111.234 c 777.27 111.234 776.219
 111.012 775.242 110.559 c 774.27 110.109 773.594 109.434 773.066 108.535
 c 772.543 107.637 772.242 106.586 772.242 105.461 c 773.742 105.461 l 773.742
 106.809 774.191 107.934 775.02 108.684 c 775.844 109.434 776.969 109.887
 778.395 109.887 c 779.594 109.887 780.645 109.586 781.395 108.91 c 782.145
 108.234 782.52 107.336 782.52 106.285 c h
782.52 106.285 m f
791.742 109.961 m 792.793 109.961 793.543 109.66 794.145 109.059 c 794.668
 108.461 794.969 107.637 795.043 106.586 c 796.469 106.586 l 796.395 108.086
 795.941 109.211 795.043 110.035 c 794.145 110.859 793.094 111.309 791.742
 111.309 c 790.02 111.309 788.742 110.785 787.844 109.66 c 786.941 108.535
 786.492 106.961 786.492 104.785 c 786.492 102.984 l 786.492 100.809 786.941
 99.086 787.844 97.961 c 788.742 96.836 790.02 96.309 791.742 96.309 c 793.168
 96.309 794.293 96.762 795.117 97.66 c 795.941 98.559 796.395 99.836 796.469
 101.484 c 795.043 101.484 l 794.969 100.285 794.668 99.387 794.145 98.711
 c 793.617 98.035 792.793 97.734 791.742 97.734 c 790.469 97.734 789.492
 98.184 788.895 99.012 c 788.293 99.836 787.992 101.184 787.992 102.984 
c 787.992 104.637 l 787.992 106.512 788.293 107.859 788.895 108.684 c 789.492
 109.512 790.469 109.961 791.742 109.961 c h
791.742 109.961 m f
799.543 92.41 m 799.543 92.109 799.617 91.887 799.77 91.66 c 799.918 91.434
 800.145 91.359 800.52 91.359 c 800.895 91.359 801.043 91.434 801.27 91.66
 c 801.418 91.887 801.492 92.109 801.492 92.41 c 801.492 92.711 801.418 
92.934 801.27 93.16 c 801.117 93.387 800.816 93.461 800.52 93.461 c 800.219
 93.461 799.992 93.387 799.77 93.16 c 799.617 92.934 799.543 92.711 799.543
 92.41 c h
801.27 111.086 m 799.77 111.086 l 799.77 96.609 l 801.27 96.609 l h
801.27 111.086 m f
810.117 111.309 m 808.395 111.309 807.117 110.785 806.145 109.66 c 805.168
 108.535 804.719 106.961 804.645 104.934 c 804.645 103.137 l 804.645 101.035
 805.094 99.309 806.066 98.109 c 806.969 96.91 808.242 96.309 809.895 96.309
 c 811.469 96.309 812.668 96.836 813.492 97.887 c 814.316 98.934 814.77 
100.512 814.77 102.609 c 814.77 104.035 l 806.145 104.035 l 806.145 104.859
 l 806.145 106.512 806.52 107.785 807.191 108.684 c 807.867 109.586 808.918
 110.035 810.191 110.035 c 811.617 110.035 812.742 109.512 813.645 108.461
 c 814.395 109.434 l 813.492 110.637 812.066 111.309 810.117 111.309 c h
809.895 97.66 m 808.691 97.66 807.793 98.109 807.191 98.934 c 806.594 99.762
 806.219 100.961 806.145 102.535 c 813.27 102.535 l 813.27 102.16 l 813.191
 99.16 812.066 97.66 809.895 97.66 c h
809.895 97.66 m f
819.344 96.609 m 819.418 98.934 l 819.867 98.184 820.395 97.512 821.066
 97.059 c 821.742 96.609 822.492 96.387 823.316 96.387 c 825.867 96.387 
827.145 98.035 827.219 101.41 c 827.219 111.086 l 825.719 111.086 l 825.719
 101.484 l 825.719 100.211 825.492 99.234 825.043 98.637 c 824.594 98.035
 823.918 97.734 822.941 97.734 c 822.191 97.734 821.441 98.035 820.844 98.637
 c 820.242 99.234 819.719 99.984 819.418 101.035 c 819.418 111.086 l 817.918
 111.086 l 817.918 96.609 l h
819.344 96.609 m f
835.691 109.961 m 836.742 109.961 837.492 109.66 838.094 109.059 c 838.617
 108.461 838.918 107.637 838.992 106.586 c 840.418 106.586 l 840.344 108.086
 839.895 109.211 838.992 110.035 c 838.094 110.859 837.043 111.309 835.691
 111.309 c 833.969 111.309 832.691 110.785 831.793 109.66 c 830.895 108.535
 830.441 106.961 830.441 104.785 c 830.441 102.984 l 830.441 100.809 830.895
 99.086 831.793 97.961 c 832.691 96.836 833.969 96.309 835.691 96.309 c 
837.117 96.309 838.242 96.762 839.066 97.66 c 839.895 98.559 840.344 99.836
 840.418 101.484 c 838.918 101.484 l 838.844 100.285 838.543 99.387 838.02
 98.711 c 837.418 98.035 836.668 97.734 835.617 97.734 c 834.344 97.734 
833.367 98.184 832.77 99.012 c 832.168 99.836 831.867 101.184 831.867 102.984
 c 831.867 104.637 l 831.867 106.512 832.168 107.859 832.77 108.684 c 833.441
 109.512 834.418 109.961 835.691 109.961 c h
835.691 109.961 m f
848.293 111.309 m 846.566 111.309 845.293 110.785 844.316 109.66 c 843.344
 108.535 842.895 106.961 842.816 104.934 c 842.816 103.137 l 842.816 101.035
 843.27 99.309 844.242 98.109 c 845.219 96.91 846.418 96.309 848.066 96.309
 c 849.645 96.309 850.844 96.836 851.668 97.887 c 852.492 98.934 852.941
 100.512 852.941 102.609 c 852.941 104.035 l 844.316 104.035 l 844.316 104.859
 l 844.316 106.512 844.691 107.785 845.367 108.684 c 846.043 109.586 847.094
 110.035 848.367 110.035 c 849.793 110.035 850.918 109.512 851.816 108.461
 c 852.566 109.434 l 851.668 110.637 850.242 111.309 848.293 111.309 c h
848.066 97.66 m 846.867 97.66 845.969 98.109 845.367 98.934 c 844.77 99.762
 844.395 100.961 844.316 102.535 c 851.441 102.535 l 851.441 102.16 l 851.367
 99.16 850.242 97.66 848.066 97.66 c h
848.066 97.66 m f
863.293 107.484 m 863.293 106.887 863.066 106.285 862.543 105.836 c 862.02
 105.387 861.117 104.859 859.918 104.336 c 858.719 103.809 857.816 103.285
 857.293 102.91 c 856.77 102.535 856.469 102.16 856.242 101.711 c 856.02
 101.262 855.867 100.734 855.867 100.137 c 855.867 99.012 856.242 98.109
 857.066 97.359 c 857.895 96.609 858.941 96.234 860.219 96.234 c 861.566
 96.234 862.691 96.609 863.52 97.434 c 864.344 98.184 864.719 99.234 864.719
 100.512 c 863.219 100.512 l 863.219 99.684 862.918 99.012 862.395 98.484
 c 861.867 97.961 861.117 97.66 860.219 97.66 c 859.316 97.66 858.645 97.887
 858.117 98.336 c 857.594 98.785 857.367 99.387 857.367 100.059 c 857.367
 100.66 857.594 101.109 857.969 101.484 c 858.344 101.859 859.242 102.309
 860.52 102.984 c 861.867 103.586 862.77 104.035 863.293 104.41 c 863.816
 104.785 864.191 105.234 864.418 105.684 c 864.645 106.137 864.793 106.734
 864.793 107.336 c 864.793 108.535 864.344 109.512 863.52 110.184 c 862.691
 110.859 861.566 111.234 860.219 111.234 c 858.793 111.234 857.594 110.859
 856.77 110.035 c 855.867 109.285 855.418 108.234 855.418 107.035 c 856.918
 107.035 l 856.992 107.934 857.293 108.609 857.816 109.137 c 858.344 109.66
 859.168 109.887 860.219 109.887 c 861.117 109.887 861.867 109.66 862.395
 109.211 c 862.992 108.836 863.293 108.234 863.293 107.484 c h
863.293 107.484 m f
0.0509804 0.670588 0.631373 rg
1.5 w
0 J
0 j
[] 0.0 d
4 M q 1 0 0 1 0 0 cm
951.785 0.75 m 588.047 0.75 l 565.574 37.109 l 0 37.109 l S Q
Q Q
showpage
%%Trailer
end
%%EOF
